<svg width="29" height="33" viewBox="0 0 29 33" fill="none" xmlns="http://www.w3.org/2000/svg">
    <path d="M25.316 8.544H2.066c-.598 0-1.083.432-1.083.953 0 .522.485.954 1.083.954h23.25c.598 0 1.082-.432 1.082-.954 0-.521-.484-.953-1.082-.953z" fill="#DABA8F"/>
    <path d="M20.51 8.251h-.006a1.773 1.773 0 0 0-.25-.008h-.109l.366.008z" fill="#242222"/>
    <path d="M19.437 8.834h.07a2.25 2.25 0 0 0 .339.017c.063-.006.126-.006.189 0h.191c.04.004.079.004.118 0 .46 0 .92 0 1.381-.025a3.6 3.6 0 0 1 .483-.008c.288.02.576.02.864.024.137-.012.274-.012.41 0 .08 0 .23.028.309.025.144 0 .217-.016.363-.022.323-.013.646-.017.969-.021.062 0 .125.003.187.011l.063-.288-.057-.318h-.107c-.298-.013-.599.017-.888.021-.807.009-1.613 0-2.42.02-.144 0-.507 0-.534-.008a3.83 3.83 0 0 0-.631-.009h-.589c-.236 0-.474-.007-.71-.017l-.053.333.053.265zM14.634 8.251a1.771 1.771 0 0 0-.249-.008h-.11l.36.008z" fill="#242222"/>
    <path d="M13.56 8.837h.069a2.252 2.252 0 0 0 .338.017c.064-.005.127-.005.19 0h.192a.542.542 0 0 0 .117 0c.46 0 .921 0 1.38-.024.162-.014.323-.017.485-.009.288.02.576.02.864.025.136-.012.274-.012.41 0 .08 0 .23.027.308.024.145 0 .218-.016.363-.021.323-.013.647-.018.97-.022.062 0 .124.003.185.012l.065-.288-.065-.314h-.106c-.297-.013-.598.017-.889.021-.806.009-1.613 0-2.42.02-.143 0-.505 0-.532-.008-.21-.02-.42-.023-.63-.009h-.59c-.236 0-.474-.007-.71-.017l-.047.321.053.272zM8.757 8.251a1.772 1.772 0 0 0-.249-.008h-.11l.36.008z" fill="#242222"/>
    <path d="M7.687 8.837h.07a2.26 2.26 0 0 0 .338.017c.063-.005.126-.005.19 0h.191a.55.55 0 0 0 .117 0c.46 0 .922 0 1.381-.024.16-.014.323-.017.484-.009.288.02.576.02.864.025.137-.012.274-.012.41 0 .081 0 .23.027.309.024.144 0 .218-.016.364-.021.323-.013.645-.018.97-.022.061 0 .123.003.185.012l.063-.288-.063-.314h-.107c-.296-.013-.597.017-.888.021-.807.009-1.613 0-2.42.02-.144 0-.505 0-.532-.008-.21-.02-.421-.023-.631-.009h-.588c-.238 0-.474-.007-.71-.017l-.055.332.058.261zM2.88 8.251a1.792 1.792 0 0 0-.25-.008h-.108l.358.008z" fill="#242222"/>
    <path d="M1.868 8.858a.312.312 0 0 1 .052 0h.163a.56.56 0 0 0 .13 0c.062-.006.125-.006.188 0h.193a.55.55 0 0 0 .117 0c.46 0 .92 0 1.381-.025a3.61 3.61 0 0 1 .485-.016c.288.02.576.02.864.025.137-.012.274-.012.41 0 .08 0 .231.027.309.024.144 0 .219-.015.363-.021.324-.013.647-.018.97-.022.063 0 .125.004.186.012l.064-.288-.064-.314h-.106c-.297-.013-.6.017-.889.021-.806.009-1.613 0-2.42.02-.143 0-.506 0-.534-.008a3.83 3.83 0 0 0-.63-.009H1.96a1.44 1.44 0 0 0-.22.025c0 .113.007.224.017.335.042.07.084.154.111.24zM3.932 10.743c.082.008.166.011.249.009h.11l-.36-.009z" fill="#242222"/>
    <path d="M5.01 10.165h-.07c-.073-.009-.144-.017-.21-.019a.801.801 0 0 0-.13 0 .901.901 0 0 1-.189 0H4.216a.555.555 0 0 0-.119 0c-.459 0-.92 0-1.38.026-.161.013-.322.016-.483.009H2.028a.886.886 0 0 1-.164-.028.829.829 0 0 1-.288-.132c-.077-.058-.151-.084-.202-.203a1.073 1.073 0 0 1-.052-.193.556.556 0 0 1-.026-.246.61.61 0 0 1 .144-.288.815.815 0 0 1 .288-.204.409.409 0 0 1 .144-.028 2.549 2.549 0 0 1 0-.297 2.789 2.789 0 0 0-.128-.288 1.279 1.279 0 0 0-.958.782 1.14 1.14 0 0 0-.034.793c.082.252.243.47.46.624.206.147.447.237.7.26H2.537c.144 0 .507 0 .534.01.21.018.421.018.63 0h.59c.236 0 .474 0 .71.017l.053-.332-.046-.263zM9.809 10.743c.082.008.166.011.249.009h.11l-.36-.009z" fill="#242222"/>
    <path d="M10.883 10.163h-.07c-.073-.009-.143-.017-.21-.019a.762.762 0 0 0-.128 0 .93.93 0 0 1-.19 0h-.191a.542.542 0 0 0-.117 0c-.46 0-.922 0-1.381.026a3.868 3.868 0 0 1-.484.009c-.288-.022-.576-.02-.864-.026a2.269 2.269 0 0 1-.41 0c-.08 0-.23-.027-.309-.026-.144 0-.217.016-.363.022-.322.014-.646.018-.969.023-.062 0-.124-.004-.186-.012l-.064.288.064.313h.107c.297.013.598-.019.889-.022.806-.009 1.613 0 2.42-.022.143 0 .505 0 .532.01.21.018.42.018.63 0h.59c.236 0 .474 0 .71.016l.055-.33-.061-.25zM15.686 10.743c.083.008.166.011.249.009h.11l-.36-.009z" fill="#242222"/>
    <path d="M16.76 10.163h-.069c-.073-.009-.144-.017-.209-.019a.779.779 0 0 0-.13 0 .93.93 0 0 1-.19 0h-.191a.541.541 0 0 0-.117 0c-.46 0-.92 0-1.38.026-.162.013-.323.016-.485.009-.288-.022-.576-.02-.864-.026a2.268 2.268 0 0 1-.41 0c-.081 0-.23-.027-.309-.026-.144 0-.218.016-.364.022-.322.014-.645.018-.97.023-.061 0-.123-.004-.185-.012l-.063.288.063.313h.107c.296.013.597-.019.888-.022.807-.009 1.613 0 2.42-.022.144 0 .505 0 .533.01.21.018.42.018.63 0h.589c.238 0 .474 0 .71.016l.055-.33-.059-.25zM21.563 10.743c.083.008.167.011.25.009h.109l-.36-.009z" fill="#242222"/>
    <path d="M22.637 10.163h-.067c-.075-.009-.144-.017-.21-.019a.779.779 0 0 0-.13 0 .915.915 0 0 1-.189 0h-.193a.542.542 0 0 0-.117 0c-.459 0-.92 0-1.38.026a3.869 3.869 0 0 1-.485.009c-.288-.022-.576-.02-.864-.026a2.27 2.27 0 0 1-.41 0c-.08 0-.23-.027-.308-.026-.144 0-.218.016-.363.022-.324.014-.647.018-.971.023a1.6 1.6 0 0 1-.186-.012l-.063.288.063.313h.107c.297.013.599-.019.888-.022.807-.009 1.613 0 2.42-.022.144 0 .507 0 .534.01.21.018.421.018.631 0h.588c.237 0 .473 0 .71.016l.054-.33-.059-.25zM26.48 8.843a.974.974 0 0 0-.21-.247c-.04-.027-.075-.057-.115-.08.127.089.237.2.325.327z" fill="#242222"/>
    <path d="m25.317 8.834.052.009c.055.012.105.027.153.04.03.01.06.019.09.025a.32.32 0 0 1 .129.052.652.652 0 0 1 .102.065l.01.012a.48.48 0 0 0 .065.05.6.6 0 0 1 .181.407.66.66 0 0 1-.16.432.6.6 0 0 1-.296.202c-.108.028-.22.042-.332.038h-.432a2.287 2.287 0 0 1-.41 0c-.08 0-.229-.027-.308-.025-.144 0-.218.015-.363.021-.323.015-.647.019-.97.023-.062 0-.125-.004-.187-.011l-.063.288.063.312h.108c.297.013.598-.018.888-.021H25.3c.053 0 .122 0 .181-.012a1.482 1.482 0 0 0 .978-.551c.057-.078.105-.162.144-.25a.787.787 0 0 0 .101-.404 1.288 1.288 0 0 0-.55-1.027 1.546 1.546 0 0 0-.837-.28l-.055.333.055.272z" fill="#242222"/>
    <path d="m27.316 13.934-1.74-2.277a.852.852 0 0 1-.176-.523v-.68H2.615v.68a.864.864 0 0 1-.176.523L.698 13.934c-.228.3-.352.668-.352 1.046v8.587c0 1.972 1.585 9.124 10.15 9.124h7.021c8.574 0 10.15-7.152 10.15-9.124v-8.589c0-.377-.123-.744-.35-1.044z" fill="#C89B63"/>
    <path d="M18.31 10.16h-.008a2.3 2.3 0 0 0-.267-.008h-.118l.392.008zM17.156 10.746l.074.007c.08.009.152.017.224.019a.754.754 0 0 0 .145 0 1.06 1.06 0 0 1 .203 0h.204a.525.525 0 0 0 .125 0c.494 0 .988 0 1.48-.025.173-.013.346-.017.52-.01.309.022.62.02.931.026.144-.012.288-.012.432 0 .085 0 .247.029.33.026.155 0 .235-.016.39-.021.346-.014.693-.02 1.039-.024.066 0 .134 0 .2.012l.067-.288-.067-.314h-.115c-.319-.013-.641.019-.952.022-.864.01-1.729 0-2.593.021-.158 0-.543 0-.576-.008a4.238 4.238 0 0 0-.677-.01h-.63c-.254 0-.507-.005-.76-.016l-.058.33.064.253zM12.01 10.16a2.349 2.349 0 0 0-.268-.008h-.117l.385.008z" fill="#242222"/>
    <path d="m10.856 10.746.073.007c.08.009.144.017.225.019a.737.737 0 0 0 .144 0 1.06 1.06 0 0 1 .203 0h.206a.536.536 0 0 0 .125 0c.493 0 .987 0 1.48-.025.172-.013.345-.017.518-.01.31.022.62.02.931.026.147-.012.294-.012.44 0 .086 0 .246.029.331.026.155 0 .233-.016.389-.021.346-.014.692-.02 1.04-.024.066 0 .132 0 .198.012l.068-.288-.068-.314h-.113c-.319-.013-.643.019-.952.022-.865.01-1.729 0-2.593.021-.158 0-.541 0-.576-.008a4.22 4.22 0 0 0-.675-.01h-.631c-.254 0-.508-.005-.76-.016l-.06.33.057.253zM5.71 10.16a2.3 2.3 0 0 0-.267-.008h-.118l.385.008z" fill="#242222"/>
    <path d="m4.559 10.746.073.007c.08.009.153.017.225.019a.753.753 0 0 0 .144 0 1.06 1.06 0 0 1 .203 0h.204a.525.525 0 0 0 .126 0c.494 0 .986 0 1.48-.025.172-.013.346-.017.518-.01.31.022.621.02.932.026.146-.012.293-.012.44 0 .084 0 .246.029.33.026.155 0 .233-.016.39-.021a41.67 41.67 0 0 1 1.038-.024c.066 0 .132 0 .2.012l.068-.288-.068-.314h-.115c-.318-.013-.641.019-.952.022-.864.01-1.728 0-2.592.021-.159 0-.543 0-.576-.008a4.238 4.238 0 0 0-.677-.01h-.631c-.254 0-.507-.005-.76-.016l-.06.33.06.253zM.054 16.689a1.916 1.916 0 0 0-.009.26v.113l.01-.373z" fill="#242222"/>
    <path d="M.638 17.81v-.071a2.31 2.31 0 0 0 .017-.219.61.61 0 0 0 0-.135 1.103 1.103 0 0 1 0-.196V16.989a.603.603 0 0 0 0-.123c0-.478 0-.957-.024-1.44l-.013-.252v-.125a.946.946 0 0 1 0-.11c.025-.255.109-.502.245-.72.061-.115.139-.22.23-.314.055-.063.167-.173.216-.239.088-.122.125-.19.212-.314.193-.275.394-.544.595-.815.04-.05.081-.098.126-.144l-.19-.229-.288-.144-.066.094c-.197.237-.363.505-.544.747l-.38.503c-.126.171-.25.32-.394.53a1.985 1.985 0 0 0-.305 1.025v.333c0 .152 0 .525-.009.554a3.99 3.99 0 0 0-.008.657v.612c0 .248-.006.494-.018.739l.332.057.266-.061zM.054 22.808a1.916 1.916 0 0 0-.009.259v.114l.01-.373z" fill="#242222"/>
    <path d="M.651 23.906v-.068c0-.073.009-.144.01-.204a1.031 1.031 0 0 0 0-.13 1.123 1.123 0 0 1 0-.197V23.107a.586.586 0 0 0 0-.121c0-.48 0-.96-.024-1.44a3.922 3.922 0 0 1-.009-.505c.02-.299.02-.602.025-.904a2.34 2.34 0 0 1 0-.432c0-.083.027-.239.024-.321 0-.151-.016-.228-.021-.379-.013-.335-.018-.672-.022-1.008 0-.065.003-.13.011-.194l-.288-.067-.314.067v.11c-.012.31.018.624.022.925.009.84 0 1.68.02 2.519 0 .153 0 .526-.008.554-.021.219-.024.438-.009.657v1.374l.334.032.25-.068zM1.772 28.749c.044.078.092.153.144.225.026.031.046.063.072.093-.072-.106-.145-.21-.216-.318z" fill="#242222"/>
    <path d="m2.91 29.291-.038-.057c-.042-.062-.08-.12-.123-.173a.835.835 0 0 0-.08-.102 1.125 1.125 0 0 1-.12-.144l-.104-.136-.01-.02a.506.506 0 0 0-.07-.095c-.265-.38-.508-.776-.729-1.184a2.698 2.698 0 0 1-.215-.432c-.098-.276-.203-.551-.288-.83a1.995 1.995 0 0 1-.125-.395c-.016-.08-.035-.232-.058-.307-.038-.144-.069-.21-.108-.351a7.073 7.073 0 0 1-.18-.96.998.998 0 0 1 0-.185l-.295-.045-.307.09v.116c.03.318.084.634.165.943.174.848.455 1.671.836 2.448.072.145.237.487.25.513.038.105.087.206.145.301.062.095.128.189.187.288.04.07.084.137.128.203.074.108.144.218.22.324l.227.307c.073.104.157.2.235.301l.288-.173.17-.245zM6.735 32.447c.081.038.166.066.254.085l.113.026c-.12-.033-.246-.066-.367-.11z" fill="#242222"/>
    <path d="m7.966 32.155-.068-.02a3.83 3.83 0 0 0-.204-.061c-.042-.01-.08-.023-.127-.03A.963.963 0 0 1 7.381 32l-.167-.042-.02-.009a.46.46 0 0 0-.116-.024c-.22-.071-.443-.144-.662-.218l-.325-.124-.164-.06-.16-.068a2.572 2.572 0 0 1-.44-.209 8.897 8.897 0 0 0-.374-.23l-.363-.242a1.606 1.606 0 0 1-.335-.24c-.062-.051-.17-.159-.23-.21-.113-.09-.176-.128-.287-.217-.111-.09-.245-.215-.366-.323-.121-.108-.228-.231-.341-.348a1.47 1.47 0 0 1-.114-.144l-.262.144-.202.243.072.09c.211.24.44.462.686.666a8.408 8.408 0 0 0 2.16 1.44c.072.032.194.093.3.145.107.051.205.089.217.099.2.106.41.189.63.245l.227.078c.122.044.248.077.373.112l.367.102c.121.035.245.058.369.088l.12-.314-.008-.276zM12.89 32.983a2.2 2.2 0 0 0 .26.009h.113l-.373-.01z" fill="#242222"/>
    <path d="m14.006 32.4-.07-.007c-.079-.009-.145-.018-.22-.019a.833.833 0 0 0-.134 0 1.12 1.12 0 0 1-.197 0H13.185a.5.5 0 0 0-.121 0c-.48 0-.96 0-1.44.024a4.217 4.217 0 0 1-.504.01c-.3-.023-.607-.017-.9-.033a2.48 2.48 0 0 1-.417-.011c-.082 0-.232-.045-.31-.046-.145-.009-.223 0-.371-.009-.148-.008-.327-.03-.491-.046a4.547 4.547 0 0 1-.487-.069 1.628 1.628 0 0 1-.183-.049l-.122.272v.32l.11.024c.079.02.156.035.234.05.078.014.158.018.238.027.158.016.315.029.47.047a20.19 20.19 0 0 0 2.547.068c.152 0 .525 0 .554.009.219.02.438.023.657.008h.613c.247 0 .493.006.738.017l.057-.33-.051-.257zM19.037 32.904c.089-.002.178-.01.265-.025l.114-.021c-.122.014-.25.035-.379.046z" fill="#242222"/>
    <path d="M20.051 32.157h-.07a1.23 1.23 0 0 0-.21.023 1.165 1.165 0 0 0-.13.025.994.994 0 0 1-.189.03l-.17.026h-.023a.52.52 0 0 0-.117.021c-.465.058-.931.087-1.401.116-.166.019-.333.024-.5.016-.3-.022-.602-.02-.904-.026a2.474 2.474 0 0 1-.432 0c-.084 0-.24-.03-.321-.026-.144 0-.228.016-.38.021a38.98 38.98 0 0 1-1.007.023c-.065 0-.13 0-.195-.011l-.064.288.064.314h.113c.308.013.622-.019.924-.022.838-.01 1.677 0 2.518-.023.157 0 .537-.01.566 0 .217.04.446-.023.67-.036l.237-.016c.128-.011.256-.031.384-.047l.378-.046.373-.064-.01-.335-.104-.25zM24.741 30.498c.07-.055.138-.115.202-.177l.082-.085-.284.262z" fill="#242222"/>
    <path d="m25.107 29.29-.05.047-.155.144a.624.624 0 0 0-.088.095c-.038.051-.081.1-.128.144 0 0-.02.023-.045.047l-.075.074-.018.013a.454.454 0 0 0-.082.083c-.163.166-.346.307-.52.46-.09.073-.183.144-.274.211-.09.068-.181.144-.277.21a2.65 2.65 0 0 1-.409.267 7.499 7.499 0 0 0-.39.197l-.399.183a1.503 1.503 0 0 1-.38.163c-.076.024-.224.06-.297.09-.136.051-.203.084-.34.136-.077.029-.154.059-.23.085l-.236.068c-.159.041-.313.096-.475.125a1.575 1.575 0 0 1-.188.026l-.007.298.127.288.112-.02c.08-.013.157-.026.235-.046l.23-.068c.144-.049.304-.09.451-.144a9.04 9.04 0 0 0 2.345-1.093c.065-.045.18-.117.288-.18.108-.063.183-.128.196-.134.1-.052.194-.115.28-.187.086-.076.17-.156.257-.228.062-.05.127-.1.184-.155l.288-.267c.094-.086.179-.18.27-.27l.135-.136.128-.144-.216-.26-.247-.123zM27.778 25.094c.026-.085.046-.172.06-.26 0-.04.011-.078.017-.117-.022.122-.05.25-.077.377z" fill="#242222"/>
    <path d="m27.363 23.906-.012.066a4.01 4.01 0 0 0-.04.206 1.107 1.107 0 0 0-.014.128.935.935 0 0 1-.022.189l-.027.168v.022a.685.685 0 0 0-.016.116c-.085.457-.21.906-.339 1.354-.04.159-.094.313-.161.462-.063.133-.124.267-.189.398-.064.131-.127.265-.196.395-.047.13-.112.253-.193.365-.043.07-.135.19-.177.257-.073.127-.1.197-.174.322a7.51 7.51 0 0 1-.562.8 1.67 1.67 0 0 1-.13.144l.178.239.288.154.076-.087c.106-.118.202-.245.288-.378.094-.13.177-.265.262-.396a9.98 9.98 0 0 0 .653-1.12c.193-.385.357-.785.49-1.195.054-.144.178-.511.191-.537.085-.209.146-.427.183-.65a11.333 11.333 0 0 0 .134-.616c.046-.25.083-.504.11-.76l-.326-.08-.275.034zM27.96 18.927c.008-.086.01-.173.008-.26v-.113l-.008.373z" fill="#242222"/>
    <path d="m27.379 17.804-.008.072a2.895 2.895 0 0 0-.018.219.713.713 0 0 0 0 .134 1.12 1.12 0 0 1 0 .197V18.626a.51.51 0 0 0 0 .121c0 .48 0 .958.024 1.44.014.168.017.335.009.503-.022.301-.02.603-.026.906.013.143.013.288 0 .432 0 .083-.027.239-.024.321 0 .144.015.226.021.377l.015.506v.494a1.321 1.321 0 0 1-.023.183l.288.086.316-.043.012-.117c.009-.08.009-.165.01-.247v-.235c-.007-.154-.016-.308-.017-.46-.009-.838 0-1.677-.02-2.517 0-.154 0-.527.008-.556.02-.218.023-.437.009-.655v-.613c0-.247.007-.493.016-.74l-.332-.056-.26.048zM26.912 12.924a1.822 1.822 0 0 0-.144-.212l-.073-.088.217.3z" fill="#242222"/>
    <path d="m25.772 12.39.038.062c.04.066.076.127.118.184a.774.774 0 0 0 .083.107c.046.047.087.098.124.152l.108.144.012.02a.562.562 0 0 0 .078.094l.857 1.099a.995.995 0 0 1 .167.397c.019.125.026.25.021.376 0 .153 0 .306-.007.458.013.144.013.289 0 .432 0 .084-.027.24-.024.322 0 .144.015.226.021.377.013.337.017.672.022 1.008 0 .064-.004.129-.012.193l.288.066.313-.066v-.111c.013-.308-.018-.622-.022-.925l-.009-1.762a1.952 1.952 0 0 0-.184-.843 2.467 2.467 0 0 0-.178-.322l-.101-.144-.045-.065a3.983 3.983 0 0 0-.392-.526l-.144-.187-.227-.304c-.147-.198-.291-.397-.432-.598l-.298.157-.175.205zM2.562 10.163l.024.151.022.144.039.304h1.305l.077-.007H4.133l.052-.009h.055v-.583h-.334l-.167.007h-.165l-1.012-.007z" fill="#242222"/>
    <path d="M2.59 10.168V10.529l-.01.072-.013.07-.017.071h.249l.082.009.084.008H3.395l.481-.014.481-.009h.092l.093.01v-.603H4.01l-.222.01h-.217l-.98.014z" fill="#242222"/>
    <path d="m2.29 12.34.07-.073.032-.035.032-.036.028-.037.03-.04.024-.04.011-.021.012-.023.04-.08.02-.038.023-.038.023-.037.03-.042.073-.102.015-.023.015-.023.013-.023.013-.023.011-.025.012-.024.01-.025.01-.024.017-.052.015-.052V10.645H2.684l.02.026H2.59l-.076-.017-.075-.019h-.096l-.024-.008V11.281l-.007.024-.008.026v.025l-.012.023-.011.024-.013.023-.015.022-.016.021-.043.057-.201.253-.203.25.48.366.02-.056z" fill="#242222"/>
    <path d="M2.924 10.825v.161l-.026.016-.03.016-.068.033-.07.03-.058.024h-.036l-.035-.008H2.547l-.016-.009-.02-.008-.02-.012-.02-.013-.023-.014-.023-.018-.024-.018-.053-.046v-.124l-.013-.062-.016-.06-.028-.117-.011-.058v-.181l.009-.03.01-.027.011-.028.013-.028.015-.026.014-.023.016-.021.008-.01.01-.009v-.009l.01-.007h.414l.078.017.155.04.074.018h.065v.062c0 .023 0 .049-.01.075l-.03.17c-.01.059-.024.116-.032.168 0 .026-.01.052-.012.075v.062H2.98l-.056-.001zM25.69 10.4l-.145.025-.151.022-.302.037V11.315l.007.038.009.039.01.037.014.05.02.058.012.03.014.032.014.032.015.03.016.03.015.026.03.048.02.034.012.019v.009l.01.011.01.016.01.013.053.058.051.057.034.036.01.01.031.03.038.035.039.039.12-.092.114-.094.116-.095.12-.092-.108-.13-.106-.128-.046-.053-.016-.022-.014-.023-.015-.021-.013-.025-.01-.024-.01-.025v-.04l-.009-.04V10.9l-.02-.5z" fill="#242222"/>
    <path d="M25.689 10.429H25.324l-.07-.01-.07-.013-.073-.017v.128c0 .016 0 .032-.007.05v.07c0 .027 0 .054-.01.083-.01.029 0 .057-.007.083-.007.026 0 .026 0 .038V11.205c0 .022 0 .043.01.068l.007.04.009.04.01.04.011.037.013.039.013.039.016.037.016.036.017.036.019.036.02.035.022.034.023.033.023.034.042.053.3.379.026.036.026.039.05.077.479-.367-.062-.085-.066-.09-.067-.089-.143-.171-.127-.144-.02-.029-.01-.016-.008-.014-.008-.016-.008-.016V11.264l-.01-.039v-.806l-.021.01z" fill="#242222"/>
    <path d="m23.524 10.75.101.01H23.912l.087-.016h.272l.081.007h.859v-.123l.007-.015-.007-.01v-.01l-.008-.01V10.421c0-.026.012-.051.016-.076l.02-.075v-.073l.008-.023v-.022h-1.472l-.323-.01v.603l.072.003z" fill="#242222"/>
    <path d="M25.027 10.757h-.161a.254.254 0 0 0-.016-.026l-.016-.03-.034-.068-.03-.069-.025-.06v-.035l.007-.034v-.036l.008-.018.007-.018.01-.02.011-.018a.16.16 0 0 1 .012-.022l.016-.021.016-.023c.007 0 .013-.016.02-.025l.044-.053h.125l.061-.013.06-.014.117-.03.058-.01h.183l.027.01.029.01.027.011.028.013.026.014.024.015.022.016.01.008h.008l.01.009.006.008V10.607a.338.338 0 0 0-.007.038c0 .026-.011.052-.019.078l-.04.155c0 .026-.011.05-.016.073l-.007.034v.031h-.062l-.073-.01-.17-.031-.169-.032-.075-.01h-.062a.233.233 0 0 1-.007-.026v-.026c0-.016 0-.03-.009-.042v-.017l.026-.065z" fill="#242222"/>
    <path d="M27.668 14.904H.346v8.26h27.322v-8.26z" fill="#DABA8F"/>
    <path d="M.054 20.419a.987.987 0 0 0-.009.186v.08l.01-.266z" fill="#242222"/>
    <path d="M.636 21.218v-.05a1.276 1.276 0 0 0 .017-.254.563.563 0 0 1 0-.144V20.626a.302.302 0 0 0 0-.086c0-.343 0-.684-.024-1.027a2.003 2.003 0 0 1-.009-.36c.02-.215.02-.432.025-.647a1.202 1.202 0 0 1 0-.305c0-.06.027-.17.024-.23 0-.107-.016-.16-.021-.27-.013-.239-.018-.48-.022-.72 0-.048.003-.096.011-.144L.35 16.79l-.314.047v.08c-.013.22.018.444.022.66.009.6 0 1.2.02 1.8 0 .108 0 .375-.008.397-.021.155-.024.312-.01.468V20.679c0 .178-.008.353-.016.529l.33.04.263-.03zM7.078 23.456c.082.009.166.012.249.01h.108l-.357-.01z" fill="#242222"/>
    <path d="m8.148 22.873-.069-.008a2.23 2.23 0 0 0-.338-.017 1.025 1.025 0 0 1-.19 0h-.189a.542.542 0 0 0-.117 0c-.46 0-.919 0-1.377.025-.16.013-.321.016-.482.008-.288-.02-.576-.02-.864-.024a2.15 2.15 0 0 1-.41 0c-.08 0-.228-.028-.307-.025-.144 0-.218.016-.362.022-.323.013-.644.017-.966.021-.062 0-.124-.003-.186-.011l-.063.288.063.314h.107c.288.013.596-.017.885-.022.804-.008 1.607 0 2.411-.02.144 0 .504 0 .533.009.209.02.419.024.628.008h.586c.236 0 .472.006.709.018l.053-.331-.055-.255zM12.93 23.456c.083.009.165.012.248.01h.11l-.357-.01z" fill="#242222"/>
    <path d="m14.006 22.873-.067-.008a2.23 2.23 0 0 0-.339-.017 1.024 1.024 0 0 1-.188 0h-.192a.554.554 0 0 0-.117 0c-.458 0-.917 0-1.375.025-.16.013-.322.016-.482.008-.289-.02-.577-.02-.865-.024a2.15 2.15 0 0 1-.409 0c-.079 0-.229-.028-.306-.025-.144 0-.218.016-.362.022-.322.013-.645.017-.966.021-.062 0-.124-.003-.186-.011l-.063.288.063.314h.107c.288.013.596-.017.884-.022.805-.008 1.608 0 2.412-.02.144 0 .504 0 .531.009.21.02.42.024.63.008h.577c.237 0 .473.01.708.018l.054-.331-.049-.255zM18.796 23.456c.082.009.165.012.247.01h.11l-.357-.01z" fill="#242222"/>
    <path d="m19.869 22.873-.068-.008a2.218 2.218 0 0 0-.338-.017 1.025 1.025 0 0 1-.19 0h-.191a.555.555 0 0 0-.116 0c-.458 0-.918 0-1.377.025-.16.013-.32.016-.481.008-.288-.02-.576-.02-.864-.024a2.15 2.15 0 0 1-.41 0c-.078 0-.228-.028-.306-.025-.144 0-.217.016-.363.022-.321.013-.644.017-.966.021-.062 0-.124-.003-.186-.011l-.063.288.063.314h.107c.296.013.596-.017.885-.022.804-.008 1.607 0 2.413-.02.144 0 .504 0 .531.009.209.02.419.024.628.008h.588c.236 0 .472.01.707.018l.054-.331-.057-.255zM24.652 23.456c.083.009.166.012.25.01h.11l-.36-.01z" fill="#242222"/>
    <path d="m25.727 22.873-.069-.008a2.228 2.228 0 0 0-.337-.017 1.04 1.04 0 0 1-.19 0h-.19a.541.541 0 0 0-.117 0c-.46 0-.917 0-1.377.025-.16.013-.321.016-.482.008-.288-.02-.576-.02-.864-.024a2.15 2.15 0 0 1-.41 0c-.078 0-.228-.028-.306-.025-.144 0-.217.016-.363.022-.322.013-.644.017-.966.021-.062 0-.124-.003-.186-.011l-.063.288.063.314h.107c.296.013.596-.017.885-.022.804-.008 1.608 0 2.411-.02.144 0 .506 0 .533.009.209.02.419.024.628.008h.587c.237 0 .471.01.708.018l.054-.331-.056-.255zM27.96 17.644c.008-.061.01-.123.008-.184v-.083l-.008.267z" fill="#242222"/>
    <path d="M27.379 16.847c0 .015 0 .033-.008.05a1.59 1.59 0 0 0-.018.155.363.363 0 0 0 0 .097.58.58 0 0 1 0 .144V17.436a.27.27 0 0 0 0 .087c0 .342 0 .685.024 1.027.014.12.017.24.009.36-.022.215-.02.432-.026.646a1.19 1.19 0 0 1 0 .305c0 .06-.027.171-.024.229 0 .108.015.163.021.27.013.241.017.482.022.72a.74.74 0 0 1-.012.145l.288.047.313-.047v-.08c.013-.22-.017-.444-.022-.66-.009-.6 0-1.2-.02-1.8 0-.11 0-.377.009-.397a2.13 2.13 0 0 0 .008-.47V17.382c0-.176.008-.352.016-.527l-.331-.04-.25.033zM20.939 14.607a2.01 2.01 0 0 0-.25-.008h-.109l.359.008zM19.865 15.193l.07.007c.073.009.143.018.208.02a.762.762 0 0 0 .128 0 1.04 1.04 0 0 1 .19 0h.19a.542.542 0 0 0 .117 0c.46 0 .92 0 1.377-.027.16-.013.322-.016.483-.008.288.021.576.02.864.025.136-.012.273-.012.409 0 .079 0 .229.03.306.026.145 0 .218-.016.363-.021.323-.015.644-.019.967-.023.062 0 .124 0 .186.011l.063-.288-.063-.314h-.107c-.295-.013-.596.019-.886.022-.803.01-1.607 0-2.41.022-.145 0-.506 0-.533-.01a3.783 3.783 0 0 0-.628 0h-.588c-.236 0-.47-.008-.707-.017l-.053.332.054.243zM15.08 14.607a2.012 2.012 0 0 0-.249-.008h-.108l.357.008z" fill="#242222"/>
    <path d="m14.01 15.193.069.007c.073.009.144.018.209.02a.779.779 0 0 0 .13 0c.062-.007.125-.007.188 0h.192a.542.542 0 0 0 .116 0c.458 0 .918 0 1.376-.027.16-.013.321-.016.482-.008.288.021.576.02.864.025.136-.012.272-.012.408 0 .08 0 .23.03.308.026.144 0 .217-.016.361-.021.323-.015.646-.019.967-.023.062 0 .124 0 .186.011l.063-.288-.063-.314h-.107c-.288-.013-.596.019-.886.022-.803.01-1.607 0-2.41.022-.145 0-.505 0-.532-.01a3.8 3.8 0 0 0-.63 0h-.585c-.237 0-.473-.008-.709-.017l-.053.332.056.243zM9.22 14.607a1.989 1.989 0 0 0-.249-.008h-.109l.357.008z" fill="#242222"/>
    <path d="m8.146 15.193.068.007c.073.009.144.018.209.02a.78.78 0 0 0 .13 0c.062-.007.125-.007.188 0h.192a.542.542 0 0 0 .116 0c.458 0 .918 0 1.377-.027.16-.013.32-.016.481-.008.288.021.576.02.864.025.136-.012.273-.012.41 0 .078 0 .228.03.306.026.144 0 .217-.016.363-.021.321-.015.644-.019.966-.023.06 0 .124 0 .184.011l.064-.288-.063-.314h-.107c-.288-.013-.596.019-.884.022-.804.01-1.609 0-2.413.022-.144 0-.504 0-.531-.01a3.8 3.8 0 0 0-.63 0H8.85c-.236 0-.472-.008-.707-.017l-.054.332.057.243zM3.36 14.607a2.012 2.012 0 0 0-.25-.008h-.109l.359.008z" fill="#242222"/>
    <path d="m2.288 15.193.069.007c.073.009.144.018.209.02a.762.762 0 0 0 .128 0c.063-.007.126-.007.189 0h.191a.542.542 0 0 0 .117 0c.46 0 .917 0 1.377-.027.16-.013.321-.016.482-.008.288.021.576.02.864.025.136-.012.273-.012.41 0 .078 0 .228.03.306.026.144 0 .217-.016.363-.021.321-.015.644-.019.966-.023.062 0 .124 0 .186.011l.063-.288-.063-.314h-.107c-.296-.013-.596.019-.885.022-.804.01-1.608 0-2.411.022-.144 0-.506 0-.533-.01a3.783 3.783 0 0 0-.628 0h-.588c-.236 0-.472-.008-.707-.017l-.054.332.056.243zM.064 23.216l.151-.024.144-.022.303-.039v-1.484c0-.016 0-.035-.01-.052-.008-.017 0-.038 0-.056H.033v.334l.009.167v.164l.023 1.012z" fill="#242222"/>
    <path d="m.055 23.187.037-.007H.416l.072.01.071.013.07.017v-.248c0-.027 0-.056.01-.083.008-.027 0-.058.008-.084V22.375l-.015-.481V21.32l.01-.093H.035v.321l.007.223c0 .074.008.144.01.221.003.078 0 .144 0 .218l.002.976z" fill="#242222"/>
    <path d="m2.224 22.862-.101-.01H1.836l-.088.017-.043.008H1.476l-.08-.008H.546V23l.007.01V23.181l-.017.076.01.086v.095l-.007.023h.486l.644.007h.323l.322.01v-.604l-.09-.012z" fill="#242222"/>
    <path d="M.717 22.857H.88l.015.025.016.03.033.068c.012.023.022.046.032.07l.023.06v.035l-.007.034V23.232l-.007.018-.01.018-.012.02-.013.02-.014.024-.018.023a.263.263 0 0 1-.018.023l-.046.055H.729l-.062.012-.06.016-.117.028-.058.011H.251l-.03-.008-.027-.01-.028-.012-.052.019-.026-.015-.025-.014-.021-.016-.01-.009-.009-.008H.014l-.007-.01L0 23.408V23.04c0-.013 0-.024.007-.037l.017-.078c.015-.052.028-.106.04-.155.008-.026.012-.05.018-.074l.007-.033v-.032h.062l.074.01.17.03.168.032.075.012H.7V22.832l.017.024zM27.72 23.446l-.023-.151-.022-.144-.038-.303h-1.305l-.078.007h-.063l-.04.008-.054.008h-.055v.591h.334l.167-.009h.165l1.012-.007z" fill="#242222"/>
    <path d="m27.695 23.451-.008-.037V23.09l.01-.072.014-.07.017-.072H27.6l-.05-.007h-.071l-.084-.008-.082-.009H26.882l-.48.014H25.827l-.092-.008v.605h.327l.222-.008.22-.01h.22l.97.006z" fill="#242222"/>
    <path d="M27.371 21.288c0 .035 0 .068-.011.1V21.676c0 .03.011.06.017.088v.272l-.007.081v.855h.122l.01-.007.01-.007H27.683l.075.017.075.02h.095l.023.006v-.486c0-.214 0-.433.008-.644v-.323l.008-.322h-.603l.007.063z" fill="#242222"/>
    <path d="M27.367 22.792V22.625l.026-.016.03-.016.066-.033.07-.032.06-.023h.036l.034.008h.035l.019.007h.017l.019.01.02.011.02.013.021.015.023.017.025.019.055.046v.123l.013.063.015.059c.01.04.02.079.028.118l.011.057v.211l-.008.028-.012.028-.011.029-.012.025-.014.026-.015.025-.015.021-.01.01-.008.01-.008.008-.009.007H27.509l-.036-.007-.078-.017-.157-.04-.072-.018-.034-.007h-.03v-.062c0-.022 0-.048.011-.074l.03-.17c.01-.059.022-.116.032-.168 0-.027.009-.052.012-.075V22.8h.125l.055-.007zM27.957 14.848l-.144.025-.151.021-.302.038v1.315l.007.077v.069c0 .012 0 .026.007.042a.396.396 0 0 0 .009.052v.055h.583v-.169l-.009-.167v-1.358z" fill="#242222"/>
    <path d="M27.962 14.88H27.597l-.07-.01-.071-.013-.072-.017a.36.36 0 0 1 0 .039v.088c0 .015 0 .033-.007.05v.07l-.009.084-.008.084V15.684l.014.48V16.739l-.009.094h.604v-.55c0-.074-.008-.145-.01-.22-.003-.077 0-.145 0-.218l.003-.964z" fill="#242222"/>
    <path d="m25.792 15.201.101.011H26.18l.087-.017.044-.007H26.539l.081.007H27.476v-.105l.007-.017-.007-.009v-.01l-.007-.01V14.884c0-.026.011-.052.015-.078l.02-.074v-.08l.008-.023v-.021h-.486l-.645-.008h-.322l-.323-.01v.604l.056.007z" fill="#242222"/>
    <path d="M27.298 15.207H27.137l-.016-.025-.016-.03c-.012-.021-.022-.045-.033-.068-.012-.023-.022-.047-.032-.069-.01-.021-.017-.043-.023-.06v-.036l.007-.035v-.034l.008-.018.007-.018.01-.02.011-.02.013-.02.015-.021.017-.023.019-.025.044-.053h.125l.061-.013.06-.014.119-.029.056-.01h.154l.029.007.027.009.029.01.029.011.026.013.026.013.024.016.022.016.01.007.008.009.009.008.007.01V15.072a5.133 5.133 0 0 0-.024.115 7.954 7.954 0 0 0-.042.156c0 .026-.012.05-.016.073l-.007.033v.032h-.062l-.073-.01-.17-.032-.169-.032-.075-.01h-.062a.255.255 0 0 1-.007-.027v-.024c0-.016 0-.03-.009-.042v-.026l.025-.072zM.29 14.615l.025.144.021.144.039.303h1.486l.052-.01h.055v-.59H1.8l-.167.008-.167.007h-.165L.29 14.615z" fill="#242222"/>
    <path d="M.322 14.615V14.978l-.01.07-.013.072-.017.07H.46l.071.008.082.009h.333l.083-.008h.098l.481-.014.481-.008h.093l.092.008v-.595h-.327l-.222.008-.222.011h-.217l-.964.006z" fill="#242222"/>
    <path d="M.644 16.778c0-.035.007-.068.01-.1V16.39l-.017-.088-.007-.043V15.1H.509l-.01.008-.01.008h-.01l-.01.007h-.06l-.008.013H.323l-.076-.016-.075-.019H.124L.1 15.094H.077l-.023-.009v.489c0 .213 0 .432-.008.643v.323l-.01.323h.605l.003-.085z" fill="#242222"/>
    <path d="M.652 15.278v.16l-.026.016-.03.017-.068.033-.07.03-.058.025H.364l-.035-.009H.275l-.016-.009-.02-.008-.02-.012-.02-.013-.022-.014-.023-.017-.025-.02-.053-.045v-.125l-.013-.06-.016-.061-.027-.117-.012-.058v-.181l.009-.029.01-.029.011-.027.013-.027.015-.026.014-.023.016-.022.009-.01.008-.01H.12l.01-.009H.545l.078.017.156.04.073.018h.065v.062c0 .023 0 .048-.01.075l-.03.168c-.01.058-.024.117-.032.17 0 .026-.009.052-.012.074a.29.29 0 0 0 0 .033v.029l-.026.008H.781L.74 15.3H.715l-.063-.022z" fill="#242222"/>
    <path d="M19.4 8.51a1.232 1.232 0 0 0-1.223-1.239H4.744A1.241 1.241 0 0 0 3.517 8.51h2.775a.59.59 0 0 1 .554.387.628.628 0 0 1 .04.236v7.286a1.191 1.191 0 0 0 .727 1.099 1.17 1.17 0 0 0 1.282-.255c.222-.224.347-.526.346-.841V13c.001-.295.118-.578.324-.79a1.104 1.104 0 0 1 1.567 0c.207.212.323.495.324.79v5.703c-.004.319.112.627.324.864.212.237.506.384.823.412.167.012.336-.012.494-.07a1.23 1.23 0 0 0 .822-1.164V8.88a.356.356 0 0 1 .351-.373l5.13.002z" fill="#FDF99A"/>
    <path d="M19.34 8.76c-.197.044-.423.176-.577.12a1.21 1.21 0 0 0-.167-.047l-.04-.009-1.201-.009-2.502-.017h-.576a.085.085 0 0 0-.063.039.086.086 0 0 0-.015.06V18.82c0 .063-.011.127-.021.189a1.513 1.513 0 0 1-.922 1.132 1.452 1.452 0 0 1-.753.09 1.519 1.519 0 0 1-.694-.288 1.537 1.537 0 0 1-.605-1.135v-5.775a.853.853 0 0 0-.114-.456.827.827 0 0 0-1.54.348v3.398c.004.119-.003.238-.023.355a1.449 1.449 0 0 1-.591.947 1.44 1.44 0 0 1-2.06-.403 1.467 1.467 0 0 1-.232-.776V9.347a2.382 2.382 0 0 0 0-.288.343.343 0 0 0-.345-.282h-2.7a.432.432 0 0 1-.063 0l-.255-.042h-.03c-.01 0 0-.02 0-.029v-.198a1.63 1.63 0 0 1 .1-.532c.018-.043.037-.092.056-.13.018-.037.033-.06.05-.09a1.486 1.486 0 0 1 1.19-.735H18.288a1.51 1.51 0 0 1 .6.174 1.737 1.737 0 0 1 .257.179l.04.036.04.039a1.319 1.319 0 0 1 .308.452c.066.144.08.307.041.46a.288.288 0 0 1-.225.15.182.182 0 0 1-.216-.145.8.8 0 0 0-.194-.322 1.645 1.645 0 0 0-.13-.12l-.033-.027-.016-.013-.132-.103a.864.864 0 0 0-.444-.13h-2.96l-6.137-.005H4.713a.864.864 0 0 0-.593.27.893.893 0 0 0-.144.212.08.08 0 0 0 0 .018v.008h2.318a.952.952 0 0 1 .671.29.97.97 0 0 1 .273.677V16.43a.847.847 0 0 0 .733.837.833.833 0 0 0 .874-.501.837.837 0 0 0 .068-.264v-3.598a1.467 1.467 0 0 1 .232-.693 1.44 1.44 0 0 1 2.615.555c.013.08.02.161.018.242V18.725c0 .048.004.097.012.144a.948.948 0 0 0 .739.785.78.78 0 0 0 .135.017.913.913 0 0 0 .648-.246.939.939 0 0 0 .275-.494c.018-.106.024-.214.018-.321V8.859a.351.351 0 0 1 0-.057.664.664 0 0 1 .584-.594.735.735 0 0 1 .108 0h4.326l.133-.016a.622.622 0 0 1 .559.22.272.272 0 0 1 .024.347z" fill="#252323"/>
    <path d="M24.791 3.567c.378-.001.742-.139 1.027-.387.29-.25.484-.591.549-.968a1.68 1.68 0 0 0-.189-1.099 1.614 1.614 0 0 0-.832-.72 1.557 1.557 0 0 0-1.092-.008c-.356.13-.654.382-.842.711-.19.334-.261.722-.2 1.102.06.378.248.723.534.978l-1.8 5.369h1.168l1.677-4.978z" fill="#C89B63"/>
    <path fill-rule="evenodd" clip-rule="evenodd" d="M25.386.295a1.665 1.665 0 0 0-1.168-.009zM24.293.49c-.332.122-.61.357-.786.664a1.578 1.578 0 0 0-.188 1.03c.056.354.233.677.5.915l.053.047-1.775 5.295h.94l1.678-4.977h.077c.352-.002.691-.13.956-.361.272-.234.453-.553.514-.905a1.573 1.573 0 0 0-.177-1.028 1.506 1.506 0 0 0-.777-.672A1.45 1.45 0 0 0 24.293.49zm-.075-.203zm0 0a1.72 1.72 0 0 0-.899.76zm1.168.01c.377.144.69.415.888.768.198.355.269.768.2 1.17-.069.4-.275.765-.584 1.03a1.682 1.682 0 0 1-1.02.412l-1.678 4.98h-1.395l1.825-5.446a1.764 1.764 0 0 1-.516-.992c-.065-.404.01-.817.213-1.172" fill="#242222"/>
    <path d="m22.901 4.62-.032.062c-.068.115-.116.24-.144.37a1.178 1.178 0 0 1-.095.356 4.97 4.97 0 0 0-.219.626c-.11.336-.207.634-.33.965a1.718 1.718 0 0 0-.112.288c-.06.24-.138.476-.232.706-.034.104-.02.38.067.432.05.033.126.023.178.053a.347.347 0 0 0 .42-.17c.038-.144.06-.3.097-.448.038-.146.095-.305.13-.46.01-.127.03-.252.056-.376.033-.13.074-.258.124-.382.083-.192.151-.39.204-.592.144-.404.288-.815.454-1.214l-.566-.216zM24.197.735c.03-.01.064-.017.094-.029a.703.703 0 0 1 .098-.03l.085-.028c-.05.013-.098.022-.144.036-.046.015-.09.022-.133.05z" fill="#252222"/>
    <path d="M25.19.075 25.11.054 24.99.022a1.151 1.151 0 0 0-.12-.016.498.498 0 0 0-.155 0c-.072.01-.144.012-.225.022l-.077.011a.825.825 0 0 0-.123.026h-.027a.448.448 0 0 0-.136.043 1.728 1.728 0 0 0-.698.454 1.792 1.792 0 0 0-.403.706c-.048.18-.083.363-.104.548-.047.34.003.687.144 1 .043.092.118.16.189.288a.65.65 0 0 1 .059.088.313.313 0 0 1 .036.144.927.927 0 0 1-.07.288l-.309.834a1.68 1.68 0 0 1-.078.172l.264.159.315.05.04-.098c.06-.137.11-.278.158-.417.047-.14.115-.324.174-.48.046-.125.093-.25.134-.374a.626.626 0 0 0 .031-.195.381.381 0 0 0-.059-.186c-.085-.13-.186-.257-.269-.404l-.068-.113-.037-.082a2.102 2.102 0 0 1-.055-.168 1.661 1.661 0 0 1-.01-.72 1.301 1.301 0 0 1 .181-.415c.105-.134.224-.258.355-.367.05-.034.101-.063.155-.088.043-.022.093-.035.137-.053.045-.02.095-.023.144-.036a1.31 1.31 0 0 1 .583.025c.04-.103.081-.207.126-.31-.003-.096-.002-.19-.002-.283zM24.578 3.468a.507.507 0 0 0-.159.23l-.044.117c.04-.13.11-.248.203-.347z" fill="#252222"/>
    <path d="m24.652 4.777.03-.062c.032-.069.055-.112.077-.167a.532.532 0 0 0 .034-.105.77.77 0 0 1 .05-.154l.046-.135.008-.016a.76.76 0 0 0 .032-.097.311.311 0 0 1 .212-.185c.093-.03.191-.042.288-.075.24-.086.456-.227.633-.41.065-.068.126-.14.183-.214.05-.078.112-.144.161-.229.193-.281.305-.61.324-.95a.96.96 0 0 0-.01-.225 21.792 21.792 0 0 1-.028-.266 1.197 1.197 0 0 0-.036-.186l-.026-.1a.715.715 0 0 0-.035-.079 1.543 1.543 0 0 0-.26-.364 2.133 2.133 0 0 0-.944-.614 2.83 2.83 0 0 1-.204-.067c-.047.089-.088.18-.127.272v.317l.086.026c.238.066.459.185.645.347a1.13 1.13 0 0 1 .355.88 1.572 1.572 0 0 1-.362.94 1.114 1.114 0 0 1-.193.182l-.1.069a.408.408 0 0 1-.057.027c-.144.052-.417.156-.633.217a.64.64 0 0 0-.224.119.883.883 0 0 0-.208.351c-.052.125-.1.255-.144.383l-.145.37.296.161.276.04zM23.515 8.265a1.34 1.34 0 0 1 .08-.174c.022-.062.031-.156.048-.215.033-.115.05-.234.087-.348.103-.321.213-.641.325-.96.036-.104.075-.208.114-.313l.01-.025v-.008c.053-.144.107-.288.153-.432.026-.082.092-.288.102-.301.01-.013.06-.216.07-.248.01-.032.015-.1.034-.17-.193-.07-.378-.117-.576-.189-.072.216-.13.432-.2.647-.178.524-.36 1.046-.536 1.57-.114.288-.296.547-.398.825a.433.433 0 0 0-.021.232c.015.078 0 .093.018.127a.266.266 0 0 0 .144.09c.21.058.514.04.546-.108z" fill="#252222"/>
    <path d="M24.052 6.519c.03-.075.102-.21.127-.288.043-.144.058-.213.1-.353.094-.311.197-.62.3-.929.021-.06.046-.117.074-.174l-.576-.199c-.013.033-.025.068-.04.101-.11.278-.18.576-.273.853-.107.314-.216.627-.324.94.193.028.377.101.537.213a.924.924 0 0 1 .075-.164zM14 10.731c0 .016 0 .032 0 0v-.028c0 .016 0 0 0 0v.095-.723.02s0-.01 0 0v.052c0-.009 0 .018 0 0v-.008a.047.047 0 0 1 0-.022v.614zM13.974 10.815v.018-.708.025c0 .003 0 .007-.008.013-.01.006 0-.1 0-.104V10.347c.007.199.007.48.008.468zM13.987 10.74v.026-.022a.1.1 0 0 1 0-.023v.011-.606.614z" fill="#252222"/>
    <path d="M6.52 7.081h-.062a.975.975 0 0 0-.348 0 .85.85 0 0 1-.323.04 4.94 4.94 0 0 0-.576.015c-.156 0-.3 0-.461.017a2.398 2.398 0 0 0-.507.075.808.808 0 0 0-.288.11 2.362 2.362 0 0 0-.559.51.518.518 0 0 0-.073.244.372.372 0 0 0 .049.242c.044.05.112.066.158.114a.22.22 0 0 0 .177.062.144.144 0 0 0 .144-.075c.037-.107.088-.208.153-.3.08-.087.173-.163.274-.226.077-.052.152-.144.247-.154.1-.03.205-.042.31-.037.185.01.37.006.554-.015.384-.008.772-.021 1.153-.018L6.52 7.08zM10.824 7.549c.074.005.148.005.222 0h.098-.32z" fill="#242222"/>
    <path d="m11.767 6.945-.062-.008c-.066 0-.127-.013-.188-.014a.635.635 0 0 0-.116 0 .811.811 0 0 1-.168.009H11.069a.385.385 0 0 0-.106 0c-.41.014-.822.018-1.232.053a2.883 2.883 0 0 1-.432.02c-.26-.014-.519 0-.778 0-.121.016-.244.02-.366.01-.072 0-.207-.021-.276-.017-.13.009-.195.022-.324.032-.288.023-.576.037-.865.05a1.297 1.297 0 0 1-.167 0l-.046.288.067.311h.096c.265 0 .533-.037.79-.047.72-.032 1.44-.044 2.161-.084.132-.007.452 0 .477 0 .187.017.376.017.563 0h1.159l.042-.333-.065-.27zM16.069 7.468c.074.006.148.006.223 0h.098-.322z" fill="#242222"/>
    <path d="M17.027 6.88h-.063a1.805 1.805 0 0 0-.304-.016.827.827 0 0 1-.17 0H16.326a.37.37 0 0 0-.104 0c-.412.008-.824 0-1.234.036-.144.015-.288.02-.432.014-.26-.017-.519-.013-.778-.016a1.77 1.77 0 0 1-.366 0c-.072 0-.206-.024-.276-.022-.13 0-.195.02-.324.028-.288.019-.576.029-.864.037-.056.005-.11.005-.166 0l-.052.288.063.313h.096c.264.008.534-.029.792-.036.72-.022 1.44-.023 2.16-.052h.477c.187.017.375.017.563 0h.508c.21 0 .424 0 .63.013l.05-.331-.042-.255zM20.067 8.456c-.026-.09-.016-.144-.045-.227a1.774 1.774 0 0 0-.377-.523 2.406 2.406 0 0 0-.854-.586 3.005 3.005 0 0 0-.313-.116l-.024-.008h-.009a2.62 2.62 0 0 0-.432-.092c-.084-.012-.288-.026-.3-.032a1.889 1.889 0 0 0-.24 0c-.013 0-.094.016-.16.02v.6a5.19 5.19 0 0 1 .566.016c.435.036.85.2 1.191.473.078.083.139.18.177.288.031.09.056.18.075.274a.213.213 0 0 0 .074.112c.043.037.03.05.059.065.053.025.11.04.17.041.11.01.22-.01.32-.06a.22.22 0 0 0 .122-.245z" fill="#242222"/>
    <path d="M18.743 7.118a1.973 1.973 0 0 0-.288-.124 3.048 3.048 0 0 0-.353-.056 6.759 6.759 0 0 0-.91-.05 1.33 1.33 0 0 1-.169-.012v.603h.094c.259.016.515-.007.754.023.264.028.522.097.764.206.05-.188.14-.363.265-.512a1.657 1.657 0 0 1-.157-.078zM7.18 11.705v-.07c.026-.136.03-.274.012-.41a1.152 1.152 0 0 1-.022-.38 6.77 6.77 0 0 0 .024-.684c0-.182.011-.354.021-.526 0-.086.012-.171.019-.259a1.595 1.595 0 0 0 0-.325.83.83 0 0 0-.144-.433 1.187 1.187 0 0 0-.454-.35c-.15-.068-.309-.112-.472-.13-.144-.018-.432.087-.457.191-.014.059.023.127.013.186a.373.373 0 0 0 .288.345c.124-.012.25-.005.372.02a.297.297 0 0 1 .12.061c.026.024.05.05.07.078.06.064.095.146.1.233a.881.881 0 0 0 0 .095v.104a.912.912 0 0 1-.018.214c-.027.22-.036.443-.027.664-.018.454-.026.913-.05 1.368l.606.008zM6.618 16.838v.01a.99.99 0 0 0 .144.305l.08.103a3.058 3.058 0 0 1-.123-.182 1.136 1.136 0 0 1-.1-.236z" fill="#242222"/>
    <path d="m7.795 17.173-.064-.027-.181-.08c-.03-.015-.053-.027-.076-.035a.143.143 0 0 1-.033-.015.063.063 0 0 1-.01-.01l-.026-.034s-.07-.085-.098-.124l-.009-.019a.546.546 0 0 0-.06-.082.816.816 0 0 1-.05-.097v.015V16.197c0-.242 0-.484-.021-.72a4.274 4.274 0 0 1-.01-.509c.02-.304.019-.609.023-.913a2.527 2.527 0 0 1 0-.432c0-.083.027-.24.026-.322 0-.153-.016-.23-.022-.382a34.209 34.209 0 0 1-.016-1.017c0-.065.006-.13.015-.196l-.288-.069-.316.062v.114c-.017.312.013.63.015.935 0 .85 0 1.697.023 2.544 0 .156 0 .532-.009.562-.02.22-.022.44-.007.661v.118a.754.754 0 0 0 0 .088.358.358 0 0 0 .01.066c0 .02.01.038.014.052.029.083.066.162.113.236.04.065.08.124.122.182l.064.082.031.04c.012.015.02.026.042.05a.798.798 0 0 0 .236.173c.128.06.26.112.395.154.052-.1.1-.2.144-.302l.023-.28zM9.463 13.519a2.472 2.472 0 0 0-.008-.252.933.933 0 0 1-.009-.107c0 .113.007.233.017.359z" fill="#242222"/>
    <path d="M9.02 12.294a.601.601 0 0 0-.051.088 1.01 1.01 0 0 0-.121.43V13.265a.59.59 0 0 0 .013.13l.031.365.013.173.012.178.039.72c.015.168.018.336.01.503-.013.144-.02.301-.029.45l-.023.444v.203a.654.654 0 0 1-.02.162.388.388 0 0 1-.035.13.403.403 0 0 1-.093.1.976.976 0 0 0-.172.252.412.412 0 0 1-.246.179.947.947 0 0 1-.549-.066l-.144.259c-.01.105-.019.212-.026.32.038.012.08.023.118.036.184.055.376.076.566.06.218-.027.423-.12.588-.265a1.28 1.28 0 0 0 .23-.268l.042-.07c.015-.02.028-.028.043-.052a.958.958 0 0 1 .1-.114.409.409 0 0 0 .144-.26c.01-.1.02-.2.026-.302l.018-.413.01-.373v-1.313a3.467 3.467 0 0 0-.022-.677l-.018-.238a5.374 5.374 0 0 1-.018-.364 1.114 1.114 0 0 1 .099-.576 2.14 2.14 0 0 1-.26-.21 1.645 1.645 0 0 0-.276-.074zM11.19 14.969a2.247 2.247 0 0 0 0 .262v.115c.002-.122 0-.25 0-.377z" fill="#242222"/>
    <path d="M11.792 16.087v-.072c.007-.078.014-.144.016-.22a.888.888 0 0 0 0-.145 1.119 1.119 0 0 1-.01-.199V15.25a.612.612 0 0 0 0-.123c-.01-.484-.015-.967-.047-1.45-.011-.171-.024-.332-.02-.515a1.86 1.86 0 0 0-.052-.516 1.572 1.572 0 0 0-.232-.507c-.11-.134-.23-.259-.36-.374a1.247 1.247 0 0 0-.342-.225 1.162 1.162 0 0 0-.509-.062c-.22.022-.431.095-.617.213a1.796 1.796 0 0 0-.456.403l-.073.093-.036.046-.039.059c.068.073.144.14.225.199.104.02.206.051.304.092l.017-.028.026-.034c.138-.196.334-.345.56-.425a.586.586 0 0 1 .422.047c.148.076.277.185.374.32.102.133.17.289.2.454.027.195.042.393.044.59v.562c-.017.22-.017.442 0 .662v1.366l.333.051.272-.061zM13.366 20.034c.095-.048.183-.109.26-.182.035-.031.065-.064.097-.098-.055.055-.111.104-.169.144-.06.05-.123.095-.188.136z" fill="#242222"/>
    <path d="M13.577 18.826a.368.368 0 0 1-.022.055c-.023.059-.05.106-.075.155a.772.772 0 0 0-.045.09.39.39 0 0 1-.083.126l-.035.04c-.018.023-.044.047-.06.064l-.016.011a.453.453 0 0 0-.073.068.907.907 0 0 1-.494.202.766.766 0 0 1-.489-.127.576.576 0 0 1-.233-.288 2.657 2.657 0 0 1-.115-.79 2.101 2.101 0 0 1-.009-.433c0-.085.025-.242.02-.324 0-.152-.018-.229-.027-.381-.019-.34-.029-.68-.039-1.02 0-.066.002-.13.009-.196l-.288-.062-.313.072v.113c0 .312.03.627.038.933l.027 1.276c.004.23.031.46.08.685.03.122.07.24.123.353.057.12.13.232.22.331.094.103.203.192.323.264.087.05.179.09.274.122.268.094.561.085.823-.024.092-.029.18-.066.264-.111.068-.04.134-.083.196-.131.058-.048.114-.097.168-.144.217-.217.37-.489.443-.787a5.67 5.67 0 0 0-.312-.128c-.096-.008-.188-.01-.28-.014zM14.248 13.859c.01-.088.014-.176.013-.264v-.117c-.006.123-.009.251-.013.38z" fill="#242222"/>
    <path d="m13.673 12.727-.008.072a2.244 2.244 0 0 0-.017.355 1 1 0 0 1 0 .197V13.55a.57.57 0 0 0 0 .121c0 .236-.008.487 0 .734.009.248.019.492.04.734.021.168.031.337.03.506-.01.301 0 .607-.008.898.01.14.004.28-.017.419-.01.082-.043.235-.048.317v.384c0 .156-.01.346-.01.524.004.16-.002.32-.017.479a.681.681 0 0 1-.039.164c.09.039.18.082.268.128.107 0 .213.007.321 0a2.426 2.426 0 0 0 .063-.64v-.453c.02-.415.064-.841.072-1.28a15.44 15.44 0 0 0-.044-1.297c-.012-.155-.017-.528-.012-.557a5.768 5.768 0 0 0 0-.65v-.233c0-.13 0-.258.01-.387l.018-.75-.333-.055-.27.07zM13.545 8.888a1.405 1.405 0 0 1-.018.201c0 .07.02.166.023.23 0 .126.028.25.033.377l.026 1.061v.385c0 .16 0 .32.008.48 0 .088.015.309.01.329-.004.02.02.232.02.266 0 .035.02.104.028.179.204 0 .395-.02.6-.02 0-.238-.031-.475-.038-.706-.019-.576-.034-1.152-.045-1.728.01-.318.095-.637.102-.943a.49.49 0 0 0-.05-.234c-.04-.07-.029-.092-.058-.118a.265.265 0 0 0-.173-.042c-.2.008-.482.124-.468.283z" fill="#242222"/>
    <path d="M13.63 10.814c0 .085-.023.243-.018.326 0 .152.021.229.03.381.02.338.034.674.04 1.008.001.065-.002.13-.008.195h.603v-.114c.009-.314-.027-.63-.037-.936l-.028-1.038c-.19.044-.388.04-.576-.013.004.064.002.128-.005.191zM1.363 26.644l-.018-.06a1.166 1.166 0 0 0-.123-.333.76.76 0 0 1-.134-.303c-.04-.194-.108-.38-.156-.576a5.164 5.164 0 0 1-.144-.905 1.6 1.6 0 0 0-.01-.277 3.12 3.12 0 0 1-.027-.671c0-.098-.097-.333-.196-.357-.058-.013-.127.015-.186 0-.144-.03-.359.144-.349.276.01.133.042.288.057.432.014.144.021.308.05.46.025.12.09.233.104.353.013.119.057.243.06.383.02.203.063.404.13.597.104.41.233.812.387 1.206l.555-.225zM3.291 30.768a1.924 1.924 0 0 0 .246.258 5.282 5.282 0 0 1-.246-.258z" fill="#242222"/>
    <path d="M4.433 30.998a.395.395 0 0 1-.044-.04 1.507 1.507 0 0 0-.136-.124.552.552 0 0 0-.087-.072.548.548 0 0 1-.129-.106l-.11-.099-.01-.016a.363.363 0 0 0-.077-.07 9.894 9.894 0 0 1-.795-.962 2.76 2.76 0 0 1-.255-.37c-.128-.238-.275-.47-.42-.705a1.785 1.785 0 0 1-.21-.323c-.035-.064-.091-.191-.129-.253-.07-.11-.116-.163-.187-.275a6.77 6.77 0 0 1-.426-.78.923.923 0 0 1-.058-.16l-.288.057-.266.179a6.022 6.022 0 0 0 .44.861c.094.171.198.335.297.503l.314.484c.206.314.41.636.632.951.08.116.27.404.288.432.104.178.23.343.375.49.044.058.095.112.144.169a5.363 5.363 0 0 0 .795.728l.23-.244.112-.255zM8.54 32.753c.077.015.156.024.235.028h.103l-.338-.028z" fill="#242222"/>
    <path d="m9.592 32.249-.065-.013a2.571 2.571 0 0 0-.194-.032.643.643 0 0 0-.121 0 .82.82 0 0 1-.178-.007l-.158-.012h-.02a.541.541 0 0 0-.11 0c-.432-.03-.854-.076-1.278-.112a2.538 2.538 0 0 1-.441-.06c-.258-.07-.519-.124-.77-.198a1.592 1.592 0 0 1-.358-.103c-.066-.03-.187-.093-.255-.116-.12-.044-.188-.051-.31-.099-.27-.102-.529-.23-.774-.383a1.47 1.47 0 0 1-.133-.1l-.213.204-.13.288.088.06c.245.165.508.302.782.41a8.108 8.108 0 0 0 2.269.617c.144.019.48.072.505.08.196.043.397.067.598.07l.212.021.344.033.67.065.073-.327-.033-.286zM14.09 32.967c.08.006.158.006.237 0h.104-.34z" fill="#242222"/>
    <path d="m15.097 32.37-.065-.007c-.07 0-.132-.013-.197-.013a.582.582 0 0 0-.121 0 .905.905 0 0 1-.177.009h-.18a.571.571 0 0 0-.11 0c-.432.008-.864 0-1.296.023-.15.01-.302.01-.452 0-.27-.028-.543-.033-.815-.048a1.903 1.903 0 0 1-.383-.014c-.075-.007-.215-.036-.288-.038-.144 0-.205.008-.342.008-.302 0-.606-.015-.908-.03a1.434 1.434 0 0 1-.173-.022l-.08.288.04.317.1.008c.28.032.566.018.84.028.763.03 1.525.065 2.288.054.144 0 .48.01.506.016.198.021.397.024.596.009h1.23l.043-.333-.056-.255zM19.658 32.885c.08-.001.16-.007.24-.02l.104-.02c-.111.017-.228.027-.344.04z" fill="#242222"/>
    <path d="M20.562 32.149H20.5c-.064.003-.128.01-.191.019a.576.576 0 0 0-.114.024.804.804 0 0 1-.17.032l-.153.024h-.02a.508.508 0 0 0-.105.019c-.416.058-.84.075-1.266.11-.149.018-.3.023-.45.015-.268-.02-.54-.021-.813-.031a1.945 1.945 0 0 1-.386 0c-.075-.008-.216-.032-.288-.03-.137 0-.206.012-.344.017l-.923.029h-.174l-.054.287.068.313h.1c.28 0 .557-.029.829-.03.752 0 1.514.03 2.283 0 .144-.007.483-.007.51 0 .204.011.407 0 .607-.032.07 0 .144-.013.216-.019.117-.013.233-.023.35-.04.23-.029.457-.068.686-.107l-.023-.335-.113-.265zM24.717 30.441a1.35 1.35 0 0 0 .179-.163l.07-.079c-.08.08-.163.163-.249.242z" fill="#242222"/>
    <path d="m24.992 29.305-.046.043c-.052.045-.1.087-.144.13a.606.606 0 0 0-.08.09.643.643 0 0 1-.114.129l-.107.112-.017.012a.488.488 0 0 0-.07.08c-.299.299-.619.576-.938.847-.109.1-.227.19-.353.267-.23.132-.452.275-.684.397a1.394 1.394 0 0 1-.33.174c-.068.026-.197.07-.26.097-.12.056-.175.092-.289.144a5.594 5.594 0 0 1-.826.288 1.5 1.5 0 0 1-.166.029v.296l.128.288.102-.023c.144-.027.285-.066.422-.118.144-.046.274-.102.407-.154.369-.14.727-.307 1.071-.501.343-.19.67-.408.98-.65.114-.084.39-.295.413-.31.17-.112.326-.244.466-.392l.16-.144c.087-.08.17-.163.254-.247.164-.16.32-.326.478-.494l-.218-.254-.239-.136zM27.662 25.64c.024-.078.044-.158.059-.238 0-.036.011-.07.018-.105-.026.112-.052.227-.077.343z" fill="#242222"/>
    <path d="m27.255 24.54-.014.061c-.016.065-.03.127-.043.187a.69.69 0 0 0-.018.115.884.884 0 0 1-.021.172.56.56 0 0 1-.01.057c0 .032-.013.07-.02.093l-.006.018a.458.458 0 0 0-.018.106c-.09.404-.209.802-.355 1.19-.046.14-.106.275-.179.402l-.202.343a7.388 7.388 0 0 1-.204.344c-.053.116-.12.226-.199.326-.043.059-.135.167-.174.227-.07.113-.095.174-.166.288-.159.25-.333.49-.521.72a1.365 1.365 0 0 1-.118.123l.183.227.276.159.07-.078c.098-.106.188-.219.269-.338.085-.117.163-.238.243-.353.115-.157.218-.324.326-.487.108-.163.204-.326.3-.494.203-.334.382-.68.536-1.038.06-.131.196-.456.21-.479.052-.09.092-.187.117-.288.032-.099.053-.201.08-.302l.061-.212.08-.347c.043-.227.087-.455.12-.681l-.323-.09-.28.028zM27.883 20.058c.01-.078.014-.156.015-.234v-.102c-.006.108-.01.222-.015.336z" fill="#242222"/>
    <path d="m27.335 19.026-.01.063c-.012.07-.022.134-.026.199a.676.676 0 0 0 0 .122.82.82 0 0 1 0 .179v.181a.502.502 0 0 0 0 .113c-.007.432-.016.875.018 1.313.017.153.025.307.024.46-.013.271 0 .542 0 .813.012.127.012.255 0 .382 0 .073-.03.213-.03.288 0 .135.017.203.015.337 0 .3-.009.597-.033.893a1.374 1.374 0 0 1-.03.168l.288.094.318-.023.015-.104a2.88 2.88 0 0 0 .033-.432v-.425c.023-.77.007-1.544-.042-2.304-.009-.144 0-.47 0-.496.018-.195.022-.391.01-.587v-.209c0-.114.009-.227.014-.341.009-.222.022-.444.04-.664l-.33-.065-.274.045zM27.87 14.438a1.468 1.468 0 0 0-.085-.241l-.05-.098c.048.105.093.221.134.34z" fill="#242222"/>
    <path d="m26.9 13.795.028.055c.027.06.049.117.077.168a.787.787 0 0 0 .058.098.69.69 0 0 1 .082.144l.026.05.039.083v.018a.484.484 0 0 0 .045.093c.15.365.224.757.22 1.152.01.149.006.298-.009.446-.036.27-.044.556-.055.825.011.129.008.258-.01.385 0 .073-.034.213-.034.288 0 .144.007.206.008.341 0 .304-.008.608-.017.913a1.438 1.438 0 0 1-.026.172l.288.07.316-.046.007-.1c.024-.278 0-.564.014-.837.01-.38.025-.762.032-1.145.007-.383.019-.743.027-1.134 0-.144.009-.498.009-.528.01-.22-.023-.44-.095-.647-.017-.076-.043-.144-.066-.222a2.676 2.676 0 0 0-.144-.345 5.97 5.97 0 0 0-.331-.63l-.306.144-.183.19zM24.99 10.782a1.8 1.8 0 0 1 .011.219c.023.079.05.156.082.232.021.062.048.122.08.178.03.056.057.116.089.169.157.3.342.585.553.851l.194.254.016.02c.09.115.177.226.27.334.051.06.18.21.185.226.048.06.1.119.154.174 0 .01.068.062.11.111.17-.117.313-.242.482-.359-.131-.178-.288-.337-.416-.498a9.711 9.711 0 0 1-.909-1.195 1.986 1.986 0 0 1-.144-.707.262.262 0 0 0-.024-.085.254.254 0 0 0-.042-.078c-.04-.05-.03-.068-.06-.088a.343.343 0 0 0-.172-.042.64.64 0 0 0-.316.067c-.089.053-.16.132-.143.217z" fill="#242222"/>
    <path d="M25.849 12.458c.043.063.115.192.164.248.09.105.144.144.233.252.2.22.387.452.562.693.03.046.059.094.083.144l.506-.329-.056-.09a5.655 5.655 0 0 0-.538-.676c-.2-.242-.397-.477-.576-.72a1.296 1.296 0 0 1-.475.327c.036.048.069.098.097.151z" fill="#242222"/>
</svg>
